<?xml version="1.0" encoding="utf-8"?>
<!-- Generator: Adobe Illustrator 22.1.0, SVG Export Plug-In . SVG Version: 6.00 Build 0)  -->
<svg version="1.1" id="Layer_1" xmlns="http://www.w3.org/2000/svg" xmlns:xlink="http://www.w3.org/1999/xlink" x="0px" y="0px"
	 viewBox="0 0 527.5 524.8" style="enable-background:new 0 0 527.5 524.8;" xml:space="preserve">
<style type="text/css">
	.st0{fill:none;stroke:#FFFFFF;stroke-width:18;stroke-miterlimit:10;}
	.st1{fill:#FFFFFF;}
	.st2{display:none;}
	.st3{display:inline;fill:none;stroke:#000000;stroke-width:18;stroke-miterlimit:10;}
	.st4{display:inline;}
</style>
<g>
	<path class="st0" d="M462,224.6v261.3c0,16.5-13.4,30-30,30H39c-16.5,0-30-13.4-30-30V62.8c0-16.5,13.4-30,30-30h282.3"/>
	<polygon class="st1" points="368.5,66.3 136,298.8 119.5,410.3 221.5,393.3 458.5,156.3 	"/>
	
		<rect x="393.9" y="36" transform="matrix(0.7071 0.7071 -0.7071 0.7071 183.0839 -303.994)" class="st1" width="129.1" height="66"/>
</g>
<g class="st2">
	<path class="st3" d="M-474,224.6v261.3c0,16.5-13.4,30-30,30H-897c-16.5,0-30-13.4-30-30V62.8c0-16.5,13.4-30,30-30h282.3"/>
	<polygon class="st4" points="-567.5,66.3 -800,298.8 -816.5,410.3 -714.5,393.3 -477.5,156.3 	"/>
	
		<rect x="-542.1" y="36" transform="matrix(0.7071 0.7071 -0.7071 0.7071 -91.0641 357.8579)" class="st4" width="129.1" height="66"/>
</g>
</svg>
